Topic;matters_gatenlp_task2_round1_bilien2es_run40;matters_gatenlp_task2_round1_bilien2es_run43;matters_gatenlp_task2_round1_bilien2es_run46;matters_gatenlp_task2_round1_bilien2es_run49;matters_gatenlp_task2_round1_bilien2es_run52
1;0.222733;0.209701;0.195769;0.226547;0.225568
10;0.231507;0.197794;0.218725;0.238063;0.210075
11;0.300287;0.25793;0.299361;0.163214;0.162015
1101;0.289915;0.282303;0.279035;0.229532;0.271567
1104;0.186347;0.151351;0.141939;0.187898;0.205639
1105;0.126357;0.140216;0.080309;0.062028;0.140446
1106;0.059539;0.053018;0.038109;0.032476;0.054638
1110;0.021875;0.02496;0.011509;0.029;0.019199
1113;0.24683;0.155689;0.166228;0.278442;0.299629
1115;0.143059;0.117563;0.116625;0.127556;0.15339
1116;0.348322;0.289513;0.22364;0.245188;0.270078
1120;0.150408;0.140507;0.097014;0.116202;0.138144
1122;0.003152;0.001289;0.002415;0.008454;0.006441
1123;0.314885;0.32117;0.272661;0.238765;0.293894
1129;0.137847;0.088705;0.10444;0.133897;0.136513
1130;0.18117;0.14625;0.129215;0.168039;0.169814
1135;0.015332;0.008294;0.009905;0.072144;0.066595
12;0.100914;0.094875;0.080738;0.078522;0.08953
13;0.054792;0.045649;0.044104;0.050693;0.048489
14;0.00257;0.001037;0.019278;0.013275;0.006188
18;0.093776;0.084532;0.113174;0.136232;0.111314
19;0.279523;0.224466;0.1477;0.26823;0.28233
21;0.137554;0.095984;0.087252;0.133888;0.142518
22;0.344294;0.348907;0.352516;0.334898;0.344319
23;0.187718;0.173759;0.175923;0.193538;0.190793
24;0.238634;0.223822;0.22344;0.246082;0.245319
3;0.231542;0.228504;0.229453;0.214631;0.210993
4;0.076215;0.051012;0.046877;0.060618;0.067883
6;0.145276;0.133826;0.111885;0.109736;0.115204
7;0.349069;0.319903;0.297466;0.339161;0.319813
