Topic;matters_gatenlp_task2_round1_bilien2de_run42;matters_gatenlp_task2_round1_bilien2de_run45;matters_gatenlp_task2_round1_bilien2de_run48;matters_gatenlp_task2_round1_bilien2de_run51;matters_gatenlp_task2_round1_bilien2de_run54
1;1;1;0.8;1;1
10;1;1;1;1;1
11;1;0.4;0.6;0;0.4
1101;1;0.8;0.8;1;1
1104;1;1;0.8;0.8;1
1105;0;0;0;0;0
1106;0.8;0.6;0.2;0.4;0.4
1110;0.8;0.8;0.8;0.8;0.8
1113;1;1;1;1;1
1115;0.8;0.8;0.2;0.2;0.8
1116;1;1;1;1;1
1120;1;0.8;0.8;0.4;1
1122;0.2;0;0.2;0;0
1123;1;0.8;0;1;1
1129;0;0;0.2;0.4;0
1130;1;1;1;1;1
1135;0.2;0.2;0;0.4;0.2
12;0;0;0;0.2;0.2
13;1;0.8;0.8;1;1
14;1;1;1;1;1
18;1;0.8;1;1;1
19;1;1;1;1;1
21;1;1;1;1;1
22;0.6;0.6;0.8;0.6;0.6
23;0.6;0.4;0.6;0.8;0.8
24;1;1;1;1;1
3;1;0.8;1;1;1
4;1;1;1;0.6;1
6;1;1;1;1;1
7;1;0.8;1;1;1
