Topic;matters_CUNIMTIR_task22_round1_deen_Run1DirichletLM;matters_CUNIMTIR_task22_round1_deen_Run3DIRLMQEBo2F;matters_CUNIMTIR_task22_round1_deen_Run4DIRLMQEKLD;matters_CUNIMTIR_task22_round1_deen_Run5DirichletLMConv;matters_CUNIMTIR_task22_round1_esen_Run1DirichletLM;matters_CUNIMTIR_task22_round1_esen_Run3DIRLMQEBo2F;matters_CUNIMTIR_task22_round1_esen_Run4DIRLMQEKLD;matters_CUNIMTIR_task22_round1_esen_Run5DirichletLMConv;matters_CUNIMTIR_task22_round1_fren_Run1DirichletLM;matters_CUNIMTIR_task22_round1_fren_Run3DIRLMQEBo2F;matters_CUNIMTIR_task22_round1_fren_Run4DIRLMQEKLD;matters_CUNIMTIR_task22_round1_fren_Run5DirichletLMConv;matters_CUNIMTIR_task22_round1_sven_Run1DirichletLM;matters_CUNIMTIR_task22_round1_sven_Run3DIRLMQEBo2F;matters_CUNIMTIR_task22_round1_sven_Run4DIRLMQEKLD;matters_CUNIMTIR_task22_round1_sven_Run5DirichletLMConv
1;0.6;1;0.6;0.6;0;0;0;0.6;0.6;1;0.6;0;0.6;1;0.6;0.6
10;0.8;0.2;0.8;0.2;0.2;0.2;0;0.2;0.4;0;0.2;0.2;0.2;0.2;0;0.8
11;0;0;0;0;0.2;0.2;0;0;0.2;0.6;0.2;0;0;0;0;0.4
1101;0;0;0;0.2;0;0;0;0;0;0;0;0.2;0;0;0;0
1104;0.8;0;0;0.6;0.6;0.2;0;0.6;1;0;0.2;0;1;0.4;0.2;0.2
1105;0;0;0.2;0;0;0;0;0;0;0;0.4;0;0;0;0.4;0
1106;0.4;0;0;0.4;0.4;0;0;0.4;0.4;0;0;0.4;0.4;0;0;0.4
1110;0;0.8;0.2;0;0;0;0;0.2;0;0;0;0;0;0;0;0
1113;0;0;0;0.2;0;0.2;0.2;0.6;0;0;0;0;0;0;0;0
1115;0;0;0;0;0;0;0;0;0;0;0;0.4;0;0;0;0
1116;0;0;0;0;0;0;0;0;0;0;0;0;0;0;0;0
1120;0.2;0.6;0.2;0.2;0;0;0;0;0;0.6;0.2;0.4;0.2;0.6;0.2;0.2
1122;0.2;0;0;0.2;0;0;0;0;0.2;0;0;0.4;0.2;0;0;0
1123;0.2;0.4;0;0.2;0.8;0.8;0.6;0;0.8;0.8;0.6;0.4;0.8;0.8;0.6;0.8
1129;0;0;0;0;0;0;0;0;0;0;0;0;0;0.4;0;0
1130;1;0.4;1;1;0.6;0.6;1;1;0.4;0.4;0;0.8;0.4;0;0;0.2
1135;0;0;0;0;0;0;0;0;0;0;0;0;0;0;0;0
12;0;0;0;0;0;0;0;0.2;0;0;0;0.6;0;0;0;0
13;0;0;0;0;0;0;0;0;0;0;0;0;0;0;0;0.2
14;0;0.2;0;0.8;0;0;0;0.8;0.6;0;0;0;0;0;0.2;0
18;0;0;0;0.4;0.4;0;0;0.4;0.4;0;0;0.4;0;0;0;0.4
19;0.6;0.4;0.2;0.6;0.6;0.4;0.2;0.6;0;0.2;0.2;0;0;0;0;0
21;0.2;0;0.2;0.8;0.2;0;0.2;0;0.2;0;0.2;0.4;0.2;0;0.2;0.2
22;0.6;0;0.4;0.6;0.6;0;0;0.6;0;0;0;0.2;0;0;0;0.6
23;0.4;0.4;0.2;0;0.6;0.2;0;0.6;0.6;0.2;0;0;0.4;0.4;0.2;0.2
24;0;0.2;0.2;0.6;0;0.2;0.2;0.8;0;0.2;0.2;0.2;0;0.2;0.2;0
3;0.6;0;0.6;0.8;0.6;0;0.6;0.4;0.6;0;0.6;0.4;0.6;0;0.6;0.6
4;0.6;0;0;0.4;0.6;0;0;0.6;0.6;0;0;0.4;0.6;0;0;0.6
6;0.6;0;0;1;0.4;0;0;0.4;0.6;0.8;0.6;0.8;0.6;0;0;0.8
7;0.4;0.2;0.4;0.4;0.4;0.2;0.4;0.4;0;0;0;0.2;0;0.8;0.4;0.4
