Topic;matters_ims_task21_round1_monosv_bm25;matters_ims_task21_round1_monosv_cbm25;matters_ims_task21_round1_monosv_csum
1;0.902913;1;0.893204
10;1;1;1
11;0.259259;0.888889;0.259259
1101;0.615385;0.626374;0.615385
1104;0.674419;0.395349;0.674419
1105;1;1;1
1106;0.759259;1;0.62963
1110;0.928571;0.928571;1
1113;1;1;1
1115;0.5;1;0.5
1116;1;1;1
1120;0.931034;1;0.896552
1122;1;1;1
1123;1;1;1
1129;1;1;1
1130;0.428571;1;0.428571
1135;0;1;0
12;0.824561;0.72807;0.833333
13;0.84127;1;0.873016
14;1;1;1
18;1;1;1
19;0.705882;0.764706;0.705882
21;0.794737;0.994737;0.794737
22;1;1;1
23;1;1;1
24;1;1;1
3;0.975904;0.903614;0.975904
4;1;1;1
6;0.821429;0.928571;0.928571
7;0.836066;1;0.852459
