Topic;matters_ims_task21_round1_monosv_bm25;matters_ims_task21_round1_monosv_cbm25;matters_ims_task21_round1_monosv_csum
1;1;1;1
10;1;1;1
11;0.8;0.8;0.8
1101;0.6;0.8;1
1104;0;0;0
1105;0;0.2;0
1106;0.8;0.4;0.4
1110;0.2;0.2;0.2
1113;0.4;0.4;0.6
1115;0;0;0
1116;1;1;1
1120;0;0;0
1122;0.8;0.4;0.8
1123;1;1;1
1129;0;0;0
1130;0.6;1;0.6
1135;0;0.2;0
12;1;0.8;1
13;0;1;0.8
14;1;1;1
18;0;1;0
19;0.2;0.8;0.2
21;1;0.2;1
22;1;0.8;1
23;1;1;1
24;1;1;1
3;1;1;1
4;0.8;0;1
6;0.8;1;0.8
7;0.6;0.8;0.6
