Topic;matters_ims_task21_round1_monoes_bm25;matters_ims_task21_round1_monoes_cbm25;matters_ims_task21_round1_monoes_csum;matters_ims_task21_round1_monoes_vcsum;sinai1;sinai2;sinai3;sinai4;sinai5
1;0.059872;0.107983;0.089543;0.305123;0.034005;0.022039;0.06377;0.062167;0.041733
10;0.089684;0.186837;0.182954;0.107445;0.03549;0.046569;0.016317;0.019627;0.005226
11;0.00156;0.170772;0.001834;0.086897;0.001762;0.113677;0.000285;0.065268;0
1101;0.321396;0.253624;0.351862;0.316099;0.298587;0.104209;0.033295;0.044993;0.100887
1104;0.003098;0.244933;0.002642;0.00548;0.001975;0.133995;0.051631;0.161167;0.00084
1105;0.038038;0.025328;0.214118;0.294674;0.009675;0.003093;0.00326;0.001971;0.001451
1106;0.026905;0.025293;0.00854;0.050866;0.028682;0.00125;0.000815;0.001239;0.011864
1110;0.100467;0.059731;0.082254;0.158913;0.078895;0.00072;0.002091;0.003756;0.025711
1113;0.15903;0.126683;0.22029;0.110207;0.145092;0.089746;0.120715;0.19996;0.007163
1115;0.192547;0.171388;0.22991;0.160063;0.084551;0.026692;0.020468;0.062865;0.001093
1116;0.255104;0.255104;0.340256;0.222282;0.105174;0.105174;0.009429;0.009541;0.005411
1120;0.143177;0.152768;0.151469;0.132225;0.096825;0.013196;0.001093;0.011141;0.001157
1122;0.125552;0.104466;0.156022;0.139794;0.097321;0.009299;0.154073;0.143764;0.000655
1123;0.374496;0.353342;0.415557;0.386773;0.31655;0.252788;0.212407;0.239871;0.047236
1129;0.198397;0.173438;0.207544;0.266936;0.169435;0.135882;0.022386;0.022386;0.011475
1130;0.127163;0.113887;0.208171;0.184971;0.115082;0.067;0.01802;0.05299;0.000347
1135;0.051189;0.039605;0.06741;0.026245;0.049967;0.000153;0.000472;0.002671;8.1e-05
12;0.000315;0.152511;0.001356;0.003062;0.001662;0.026413;0.000243;0.006375;0
13;0.048764;0.09021;0.044017;0.105784;0.031459;0.012457;0.00384;0.010027;0.001829
14;0.328643;0.326941;0.351815;0.195417;0.208987;0.167689;0.018679;0.013045;0
18;0.080357;0.075298;0.085427;0.161189;0.063548;0.005663;0.019408;0.051753;0.001072
19;0.029888;0.070701;0.040787;0.049509;0.017244;0.046962;0.014401;0.049558;0.000903
21;0.177656;0.102589;0.181918;0.209575;0.163436;0.064003;0.001474;0.010508;0.023472
22;0.455241;0.457587;0.470223;0.356445;0.201379;0.136797;0.025191;0.152922;7.2e-05
23;0.197741;0.208282;0.200314;0.101899;0.15668;0.091217;0.006052;0.026096;0.015219
24;0.214122;0.205622;0.219144;0.222218;0.204818;0.124123;0.039292;0.083717;0.044455
3;0.25878;0.199025;0.267559;0.266901;0.194789;0.166202;0.129459;0.178983;0.101237
4;0.011742;0.081671;0.003486;0.002699;0.001941;7.9e-05;0.000217;0.00066;0.000267
6;0.082219;0.140684;0.127268;0.23735;0.031742;0.051589;0.000171;0.065492;0.01876
7;0.221078;0.284842;0.236609;0.224414;0.052231;0.125012;0.036074;0.123762;0.000158
