Topic;matters_gatenlp_task2_round1_bilien2fr_run26;matters_gatenlp_task2_round1_monofr_run29;matters_gatenlp_task2_round1_monofr_run32;matters_gatenlp_task2_round1_monofr_run35;matters_gatenlp_task2_round1_monofr_run38;matters_ims_task22_round1_monofr_bm25_1k_100_100;matters_ims_task22_round1_monofr_bm25_2k_100_100;matters_ims_task22_round1_monofr_bm25_3k_100_100;matters_ims_task22_round1_monofr_bm25_4k_100_100
1;0.591123;0.582266;0.574961;0.572985;0.544141;0.026213;0.018977;0;0.000972
10;0.364186;0.341496;0.31916;0.308667;0.206221;0.058037;0.038626;0.101563;0.095035
11;0.103798;0.080277;0.106623;0.105063;0.074582;0.090138;0.102161;0.141094;0.054111
1101;0.734483;0.720057;0.728261;0.729881;0.673543;0.079013;0.041233;7.8e-05;7e-05
1104;0.166015;0.170001;0.174193;0.157561;0.156122;0.064177;0.033966;0.048211;0.076841
1105;0.508345;0.442113;0.397336;0.409498;0.443753;0.001116;0.000111;0;0
1106;0.136035;0.152598;0.164302;0.144512;0.121168;0.003155;0.010368;0.021687;0.048263
1110;0.061582;0.061787;0.06336;0.0592;0.060448;0.029725;0.031958;0.030741;0.002846
1113;0.306729;0.273533;0.324151;0.333028;0.090421;0.124669;0.095391;0.08988;0.064211
1115;0.161029;0.174309;0.191459;0.189045;0.186001;0.102883;0.0896;0.029083;0.093924
1116;0.416395;0.421069;0.445914;0.456323;0.37842;0.198615;0.168312;0.195376;0.010129
1120;0.196516;0.211923;0.282593;0.266624;0.300881;0.011292;0.06804;0.065062;0.039921
1122;0.250356;0.187366;0.178457;0.181363;0.097797;0.075436;0.003221;0.039989;0.037406
1123;0.842686;0.884921;0.884554;0.893813;0.838817;0.147724;0.075721;0.088025;0.000825
1129;0.387894;0.31802;0.08586;0.078095;0.049266;0.071057;0.093504;0.066498;0.056441
1130;0.636866;0.607887;0.614821;0.593529;0.535806;0.032524;0.057105;0.049943;0.048311
1135;0.086294;0.04569;0.030413;0.025532;0.042725;0.004957;0.00068;0.000787;0.00082
12;0.049812;0.032518;0.052668;0.049262;0.032368;0.040949;0.052208;0.074096;0.044101
13;0.461159;0.443252;0.425042;0.415683;0.349951;0.031527;0.01275;0.022964;0.008045
14;0.654931;0.508441;0.504578;0.497948;0.525532;0.557319;0.599225;0.621952;0.668248
18;0.345992;0.308023;0.278174;0.270334;0.201116;0.071639;0.065509;0.002262;0.002978
19;0.485801;0.446202;0.327867;0.333558;0.307253;0.076479;0.068562;0.065316;0.079121
21;0.444508;0.442235;0.488351;0.475206;0.4634;0.121307;0.111967;0.019373;0.007616
22;0.391049;0.372356;0.331269;0.328069;0.234148;0;0;0;0
23;0.119401;0.103581;0.094427;0.095013;0.084714;0.151865;0.152862;0.108566;0.093903
24;0.381599;0.3802;0.367601;0.362348;0.372947;0.068225;0.056024;0.145781;0.044537
3;0.34324;0.323042;0.255292;0.248782;0.214453;0.082223;0.001409;0.001451;0.012133
4;0.151853;0.169239;0.122362;0.125787;0.07216;0.009655;0.005285;0.005246;0.012653
6;0.338512;0.295998;0.243319;0.243451;0.190546;0.109322;0.022179;0.061331;0.108875
7;0.396749;0.404581;0.426406;0.424213;0.408757;0.001426;0.010461;0.05732;0.041659
