Topic;matters_gatenlp_task2_round1_bilien2fr_run26;matters_gatenlp_task2_round1_monofr_run29;matters_gatenlp_task2_round1_monofr_run32;matters_gatenlp_task2_round1_monofr_run35;matters_gatenlp_task2_round1_monofr_run38;matters_ims_task22_round1_monofr_bm25_1k_100_100;matters_ims_task22_round1_monofr_bm25_2k_100_100;matters_ims_task22_round1_monofr_bm25_3k_100_100;matters_ims_task22_round1_monofr_bm25_4k_100_100
1;1;1;1;1;1;0;0.4;0;0
10;1;1;1;1;0.8;0.2;0;0.6;0.6
11;0.6;0.4;0.8;0.8;0.8;0.4;0.4;0.6;0.2
1101;1;1;1;1;1;0;0.2;0;0
1104;1;1;0.8;0.8;0.8;0.2;0.2;0;0.6
1105;1;1;0.6;0.8;0.8;0;0;0;0
1106;1;1;1;1;1;0;0;0;0
1110;0.8;0.8;0.8;0.8;0.8;0.2;0;0;0
1113;1;1;1;1;0.2;0;0;0;0
1115;1;1;1;1;1;0.6;0.4;0;0.2
1116;1;1;1;1;1;0.8;0.8;1;0
1120;0.8;0.8;1;1;1;0;0.4;0.4;0.2
1122;0.6;0.4;0.2;0.2;0;0.2;0;0;0
1123;1;1;1;1;1;0.2;0.2;0.2;0
1129;0.8;0.8;0;0;0;0;0.2;0;0
1130;1;1;1;1;1;0;0.4;0;0
1135;0.2;0.2;0;0;0.2;0;0;0;0
12;0.8;0.4;0.8;0.8;0.6;0;0.2;0.4;0.2
13;1;1;1;1;1;0;0;0.2;0
14;1;1;1;1;1;0.8;1;1;1
18;1;1;1;1;1;0;0.6;0;0
19;1;1;0.8;0.8;1;0.4;0.2;0.2;0.2
21;1;1;1;1;1;0.8;0.8;0;0
22;0.8;0.8;0.8;0.8;0.8;0;0;0;0
23;0.4;0.4;0.4;0.4;0.4;0.4;0.4;0.2;0
24;1;1;1;0.8;1;0;0;0.6;0
3;0.8;0.8;0.8;0.8;0.8;0.4;0;0;0.2
4;0.8;1;0.6;0.6;0.6;0;0;0;0
6;1;1;1;1;1;0.2;0;0;0.4
7;1;1;1;1;1;0;0;0.2;0.2
