Topic;matters_gatenlp_task2_round1_bilien2fr_run26;matters_gatenlp_task2_round1_monofr_run29;matters_gatenlp_task2_round1_monofr_run32;matters_gatenlp_task2_round1_monofr_run35;matters_gatenlp_task2_round1_monofr_run38;matters_ims_task22_round1_monofr_bm25_1k_100_100;matters_ims_task22_round1_monofr_bm25_2k_100_100;matters_ims_task22_round1_monofr_bm25_3k_100_100;matters_ims_task22_round1_monofr_bm25_4k_100_100
1;0.655738;0.647541;0.647541;0.647541;0.647541;0.196721;0.122951;0;0.040984
10;0.469697;0.469697;0.469697;0.469697;0.469697;0.393939;0.409091;0.409091;0.409091
11;0.195122;0.195122;0.195122;0.195122;0.195122;0.426829;0.512195;0.585366;0.439024
1101;0.797872;0.797872;0.797872;0.797872;0.797872;0.457447;0.297872;0.010638;0.010638
1104;0.414286;0.414286;0.414286;0.414286;0.414286;0.5;0.3;0.314286;0.314286
1105;0.806452;0.725806;0.725806;0.725806;0.725806;0.048387;0.016129;0;0
1106;0.231884;0.217391;0.217391;0.217391;0.217391;0.115942;0.173913;0.275362;0.434783
1110;0.178571;0.151786;0.151786;0.151786;0.151786;0.241071;0.3125;0.258929;0.071429
1113;0.538462;0.461538;0.461538;0.461538;0.461538;1;0.871795;0.871795;0.769231
1115;0.259259;0.277778;0.277778;0.277778;0.277778;0.425926;0.5;0.314815;0.574074
1116;0.583333;0.583333;0.583333;0.583333;0.583333;0.583333;0.472222;0.5;0.277778
1120;0.4375;0.4375;0.4375;0.4375;0.4375;0.21875;0.34375;0.3125;0.25
1122;0.689655;0.517241;0.517241;0.517241;0.517241;0.62069;0.137931;0.517241;0.517241
1123;0.916667;0.916667;0.916667;0.916667;0.916667;1;0.333333;0.666667;0.083333
1129;0.6875;0.6875;0.6875;0.6875;0.6875;0.9375;0.9375;0.9375;0.875
1130;0.727273;0.672727;0.672727;0.672727;0.672727;0.2;0.354545;0.345455;0.345455
1135;0.7;0.5;0.5;0.5;0.5;0.3;0.1;0.1;0.1
12;0.117647;0.096257;0.096257;0.096257;0.096257;0.229947;0.26738;0.294118;0.245989
13;0.517241;0.517241;0.517241;0.517241;0.517241;0.275862;0.206897;0.224138;0.189655
14;0.741176;0.552941;0.552941;0.552941;0.552941;0.929412;0.952941;0.952941;0.952941
18;0.471264;0.471264;0.471264;0.471264;0.471264;0.45977;0.229885;0.08046;0.091954
19;0.676923;0.646154;0.646154;0.646154;0.646154;0.538462;0.553846;0.523077;0.507692
21;0.530387;0.508287;0.508287;0.508287;0.508287;0.364641;0.292818;0.154696;0.110497
22;0.666667;0.555556;0.555556;0.555556;0.555556;0;0;0;0
23;0.396226;0.358491;0.358491;0.358491;0.358491;0.54717;0.54717;0.509434;0.509434
24;0.513514;0.513514;0.513514;0.513514;0.513514;0.756757;0.702703;0.621622;0.459459
3;0.573333;0.546667;0.546667;0.546667;0.546667;0.373333;0.066667;0.066667;0.12
4;0.314286;0.342857;0.342857;0.342857;0.342857;0.2;0.2;0.171429;0.342857
6;0.411111;0.388889;0.388889;0.388889;0.388889;0.488889;0.255556;0.355556;0.466667
7;0.581395;0.604651;0.604651;0.604651;0.604651;0.093023;0.27907;0.534884;0.465116
