Topic;matters_gatenlp_task2_round1_bilien2fr_run26;matters_gatenlp_task2_round1_monofr_run29;matters_gatenlp_task2_round1_monofr_run32;matters_gatenlp_task2_round1_monofr_run35;matters_gatenlp_task2_round1_monofr_run38;matters_ims_task22_round1_monofr_bm25_1k_100_100;matters_ims_task22_round1_monofr_bm25_2k_100_100;matters_ims_task22_round1_monofr_bm25_3k_100_100;matters_ims_task22_round1_monofr_bm25_4k_100_100
1;0.622951;0.581967;0.590164;0.598361;0.581967;0.131148;0.081967;0;0.02459
10;0.363636;0.348485;0.348485;0.348485;0.318182;0.075758;0.045455;0.136364;0.136364
11;0.170732;0.146341;0.170732;0.170732;0.158537;0.109756;0.121951;0.170732;0.02439
1101;0.723404;0.702128;0.691489;0.680851;0.659574;0.106383;0.021277;0;0
1104;0.257143;0.242857;0.242857;0.257143;0.257143;0.057143;0.057143;0.171429;0.1
1105;0.5;0.516129;0.483871;0.483871;0.467742;0.016129;0;0;0
1106;0.188406;0.188406;0.202899;0.202899;0.188406;0;0.028986;0;0
1110;0.142857;0.133929;0.133929;0.116071;0.133929;0.044643;0.026786;0.089286;0.035714
1113;0.282051;0.25641;0.333333;0.333333;0.128205;0.025641;0.051282;0.051282;0
1115;0.185185;0.203704;0.203704;0.203704;0.185185;0.111111;0.12963;0.111111;0.111111
1116;0.416667;0.416667;0.5;0.5;0.416667;0.166667;0.138889;0.194444;0
1120;0.28125;0.3125;0.34375;0.25;0.34375;0.03125;0.0625;0.0625;0.03125
1122;0.275862;0.310345;0.310345;0.310345;0.241379;0.034483;0;0.068966;0.068966
1123;0.833333;0.833333;0.916667;0.916667;0.75;0.166667;0.25;0.25;0
1129;0.375;0.3125;0.125;0.0625;0;0.0625;0.1875;0.0625;0.0625
1130;0.609091;0.590909;0.618182;0.6;0.563636;0.190909;0.1;0.145455;0.109091
1135;0.1;0.1;0;0;0.1;0;0;0;0
12;0.117647;0.096257;0.090909;0.090909;0.090909;0.229947;0.251337;0.294118;0.224599
13;0.448276;0.448276;0.448276;0.448276;0.431034;0.137931;0.051724;0.068966;0
14;0.6;0.541176;0.517647;0.494118;0.517647;0.458824;0.494118;0.494118;0.576471
18;0.413793;0.356322;0.344828;0.356322;0.321839;0;0.137931;0;0
19;0.430769;0.430769;0.384615;0.384615;0.384615;0.046154;0.030769;0.046154;0.046154
21;0.513812;0.480663;0.497238;0.502762;0.497238;0.337017;0.265193;0.127072;0.088398
22;0.444444;0.422222;0.377778;0.377778;0.288889;0;0;0;0
23;0.169811;0.150943;0.150943;0.150943;0.150943;0.207547;0.188679;0.037736;0.056604
24;0.432432;0.432432;0.432432;0.432432;0.405405;0;0.027027;0.081081;0.027027
3;0.44;0.44;0.373333;0.386667;0.333333;0.12;0;0.013333;0.04
4;0.171429;0.171429;0.171429;0.2;0.114286;0.028571;0;0.028571;0
6;0.366667;0.344444;0.333333;0.322222;0.311111;0.188889;0.033333;0.144444;0.144444
7;0.44186;0.44186;0.44186;0.44186;0.465116;0;0;0.093023;0.046512
