Topic;matters_ims_task22_round1_monoit_bm25_1k_100_100;matters_ims_task22_round1_monoit_bm25_2k_100_100;matters_ims_task22_round1_monoit_bm25_3k_100_100;matters_ims_task22_round1_monoit_bm25_4k_100_100
1;0.6;0.2;0.4;0.2
10;0.6;0.4;0.6;0.2
11;0;0.2;0.2;0.2
1101;0.2;0.2;0.2;0.4
1104;0.4;0.2;0;0.2
1105;0;0;0;0
1106;0;0;0;0
1110;0;0.2;0;0.2
1113;0.2;0.2;0;0
1115;0.4;0;0.2;0
1116;0;0;0;0
1120;0.8;0;0.2;0
1122;0.2;0;0;0
1123;0.2;0.4;0.4;0
1129;0.4;0.8;0;0
1130;0.2;0.2;0.2;0.2
1135;0.2;0;0;0
12;0;0;0;0.2
13;0;0.4;0.4;0
14;0;0.2;0.2;0.2
18;0;0;0;0
19;0.4;0.8;0.6;0
21;0.2;0.2;0.4;0.4
22;0.4;1;0.8;0.2
23;0;0;0;0
24;0;0;0;0
3;0;0.2;1;0.6
4;0;0;0;0
6;0.2;0.4;0;0.4
7;0.2;0.4;0;0
