Topic;matters_ims_task22_round1_monoit_bm25_1k_100_100;matters_ims_task22_round1_monoit_bm25_2k_100_100;matters_ims_task22_round1_monoit_bm25_3k_100_100;matters_ims_task22_round1_monoit_bm25_4k_100_100
1;0.245435;0.173532;0.159153;0.168747
10;0.163318;0.107988;0.137275;0.062492
11;0.07731;0.124974;0.1561;0.16763
1101;0.095122;0.140847;0.163823;0.140003
1104;0.125655;0.175658;0.188227;0.18741
1105;0.00385;0.005807;0.007851;0.066122
1106;0.008876;0.020973;0.012239;0.008355
1110;0.040459;0.103784;0.09523;0.087177
1113;0.211806;0.232696;0.197536;0.132667
1115;0.104555;0.018647;0.287869;0.291722
1116;0.016324;0.010134;0.037143;0.032194
1120;0.12984;0.107167;0.104896;0.112048
1122;0.227125;0.186007;0.179288;0.184891
1123;0.227918;0.19911;0.121378;0.05502
1129;0.177283;0.16982;0.105017;0.100463
1130;0.101629;0.124601;0.133608;0.155746
1135;0.114886;0.125559;0.12881;0.13643
12;0.011425;0.027897;0.035085;0.038064
13;0.053175;0.190664;0.154253;0.131742
14;0.100645;0.273982;0.217597;0.30971
18;0.054594;0.058958;0.061846;0.058352
19;0.088622;0.150542;0.161598;0.012886
21;0.09152;0.094357;0.113135;0.106472
22;0.201669;0.60903;0.533648;0.239438
23;0.021768;0.132117;0.118985;0.118103
24;0.057522;0.048604;0.004498;0.010083
3;0.104914;0.139238;0.217622;0.143995
4;0.029097;0.056276;0.033071;0.003566
6;0.060829;0.070695;0.102003;0.055192
7;0.123468;0.044944;0.001939;0.000977
