Topic;matters_CUNIMTIR_task22_round1_enen_Run1DirichletLM;matters_CUNIMTIR_task22_round1_enen_Run3DIRLMQEBo2F;matters_CUNIMTIR_task22_round1_enen_Run4DIRLMQEKLD;matters_CUNIMTIR_task22_round1_enen_Run5DirichletLMConv;matters_gatenlp_task2_round1_monoen_run1;matters_gatenlp_task2_round1_monoen_run2;matters_gatenlp_task2_round1_monoen_run3;matters_gatenlp_task2_round1_monoen_run5;matters_gatenlp_task2_round1_monoen_run7;matters_ims_task22_round1_monoen_bm25_1k_100_100;matters_ims_task22_round1_monoen_bm25_2k_100_100;matters_ims_task22_round1_monoen_bm25_3k_100_100;matters_ims_task22_round1_monoen_bm25_4k_100_100
1;0.227819;0.218895;0.203172;0.227819;0.470173;0.494701;0.490515;0.490515;0.488169;0.386281;0.035791;0.030363;0.050421
10;0.130266;0.044277;0.051713;0.11853;0.275519;0.27746;0.279368;0.279525;0.275541;0.193531;0.095592;0.087645;0.057466
11;0.155162;0.232858;0.161084;0.207934;0.357277;0.36642;0.37569;0.434406;0.418488;0.190011;0.296474;0.37114;0.298705
1101;0.126104;0;0.041686;0.282666;0.637835;0.573131;0.667408;0.691164;0.699327;0.3597;0.319406;0.31118;0.282976
1104;0.140649;0.027313;0.02467;0.254664;0.428537;0.365489;0.418546;0.422358;0.43371;0.313615;0.286547;0.264421;0.343006
1105;0.034862;0.037241;0.04743;0.034862;0.329614;0.195301;0.365731;0.365402;0.371944;0.198234;0.043769;0.042725;0.116351
1106;0.041948;0;0;0.052435;0.412881;0.354418;0.413006;0.416376;0.397543;0.068831;0.113481;0.18931;0.171496
1110;0.028462;0;0;0.102395;0.2027;0.265705;0.287119;0.29685;0.171668;0.169734;0.038686;0.116471;0.048699
1113;0.383225;0.261828;0.209684;0.34686;0.497703;0.457071;0.538517;0.586496;0.524944;0.521242;0.406571;0.349992;0.331842
1115;0.26118;0;0.016831;0.303147;0.385082;0.37223;0.40594;0.396458;0.360663;0.062968;0.105964;0.134668;0.144728
1116;0.157555;0;0;0.157555;0.668606;0.636892;0.728222;0.718858;0.647712;0.011822;0.020247;0.01437;0.00486
1120;0.31014;0.257029;0.203355;0.265563;0.386921;0.269582;0.390008;0.36876;0.37351;0.118666;0.08691;0.109964;0.120359
1122;0.39544;0.196448;0.297151;0.206177;0.592624;0.597879;0.634109;0.618613;0.523352;0.169293;0.100286;0.082679;0.078511
1123;0.355317;0.333372;0.308191;0.379877;0.641772;0.539963;0.632255;0.589703;0.593199;0.386396;0.395222;0.23037;0.23192
1129;0.301543;0.068999;0.061814;0.382904;0.797461;0.80179;0.809071;0.808973;0.797696;0.181225;0;0;0
1130;0.121699;0.165896;0.15036;0.135138;0.365987;0.446351;0.421857;0.450506;0.338025;0.142439;0.10229;0.090847;0.084218
1135;0.216198;0.063345;0.016452;0.192536;0.406473;0.505805;0.480584;0.467916;0.411127;0.017833;0.071704;0.097354;0.1194
12;0.035845;0;0;0.195955;0.390515;0.482379;0.473548;0.48258;0.4202;0.048886;0.064034;0.161047;0.130707
13;0.040502;0.003809;0.016396;0.459786;0.583282;0.557331;0.551848;0.568847;0.578672;0.012882;0.020941;0.020335;0.019683
14;0.438025;0.215453;0.378793;0.357309;0.52869;0.553849;0.526187;0.536384;0.526074;0.115512;0.107896;0.167904;0.348355
18;0.160615;0;0.006012;0.248075;0.459111;0.445442;0.426562;0.417213;0.468699;0.250898;0.321669;0.183799;0.180491
19;0.327557;0.197211;0.239402;0.42279;0.446251;0.39423;0.435133;0.434232;0.438173;0.289567;0.265753;0.214056;0.050084
21;0.11482;0.008554;0.036084;0.242274;0.516648;0.53563;0.51901;0.488132;0.496294;0.173503;0.088603;0.085972;0.052244
22;0.162348;0;0;0.690999;0.796176;0.802621;0.796944;0.796933;0.790596;0.44111;0.436795;0.343303;0.16305
23;0.19927;0.089467;0.056157;0.192868;0.46878;0.42683;0.496435;0.496197;0.449621;0.367212;0.10098;0.074943;0.044647
24;0.194989;0.107993;0.107993;0.29048;0.331714;0.326072;0.325043;0.330596;0.329188;0.219064;0.057377;0.074087;0.028085
3;0.157077;0.013439;0.120713;0.308555;0.494017;0.483146;0.514948;0.517879;0.517083;0.271169;0.157621;0.146727;0.062507
4;0.199416;0.00602;0;0.192109;0.429184;0.432611;0.450926;0.460956;0.421556;0.236838;0.200952;0.049914;0.01603
6;0.272964;0.227388;0.207678;0.280623;0.264313;0.261406;0.268793;0.268642;0.264221;0.24091;0.278504;0.220553;0.167417
7;0.387108;0.378229;0.287474;0.451639;0.531328;0.562073;0.54647;0.546473;0.547435;0.278542;0.175303;0.191096;0.173453
