Topic;matters_ims_task21_round1_monofr_bm25;matters_ims_task21_round1_monofr_cbm25;matters_ims_task21_round1_monofr_csum;matters_ims_task21_round1_monofr_vcsum
1;0.4;1;0.6;1
10;0.4;0.6;0.8;1
11;0;0.8;0;0
1101;1;0.8;1;1
1104;1;0.8;0.8;1
1105;0;0;0;0.4
1106;0;0.2;0;0
1110;1;1;1;1
1113;1;0.6;1;1
1115;1;1;1;1
1116;1;1;1;1
1120;0.8;0.6;0.8;0.8
1122;1;1;1;0.8
1123;1;1;1;1
1129;0.4;0.8;0.4;0.4
1130;0.6;0.8;1;1
1135;0.4;0.6;0.6;0.6
12;0.4;0.8;0.6;0
13;1;0.8;1;1
14;1;1;1;1
18;0;0.8;0.4;0.2
19;1;1;1;1
21;0.8;0.8;0.6;1
22;0;1;0;0
23;0.6;1;0.6;0.6
24;1;1;1;1
3;1;0.8;1;1
4;0.2;0.6;0.6;0.6
6;1;0.8;1;0.8
7;1;1;1;1
